…
```
## [1] 2304
```

```r
#Fill the missing values based in the average of that interval

activity_data %>% group_by(interval) %>% mutate(mean=mean(steps, na.rm =
                                                                  TRUE),new_steps=ifelse(is.na(steps), mean, steps)) %>% ungroup() %>% slice(300:10)
```

```
## # A tibble: 291 x 5
##    steps date       interval   mean new_steps
##    <int> <date>        <int>  <dbl>     <dbl>
##  1     0 2012-10-02       55 0.132          0
##  2     0 2012-10-02       50 0.302          0
##  3     0 2012-10-02       45 1.47           0
##  4     0 2012-10-02       40 0              0
##  5     0 2012-10-02       35 0.868          0
##  6     0 2012-10-02       30 0.528          0
##  7     0 2012-10-02       25 2.09           0
##  8     0 2012-10-02       20 0.0755         0
##  9     0 2012-10-02       15 0.151          0
## 10     0 2012-10-02       10 0.132          0
## # ... with 281 more rows
```
…
```r
#Viewing the first rows of the dataset

New_data %>% group_by(interval,wday_end) %>% summarise(mean=mean(new_steps))
```

```
## # A tibble: 576 x 3
## # Groups:   interval [288]
##    interval wday_end    mean
##       <int> <chr>      <dbl>
##  1        0 Weekday  1.94   
##  2        0 Weekend  0.215  
##  3        5 Weekday  0.384  
##  4        5 Weekend  0.0425 
##  5       10 Weekday  0.150  
##  6       10 Weekend  0.0165 
##  7       15 Weekday  0.171  
##  8       15 Weekend  0.0189 
##  9       20 Weekday  0.0854 
## 10       20 Weekend  0.00943
## # ... with 566 more rows
```
…
